{
    "DY" : {
        "A": 163234,
        "B": 31638,
        "C": 942,
        "D": 1502
    },
    "TTTo2L2Nu" : {
        "A": 3351254,
        "B": 352914,
        "C": 11554,
        "D": 37184
    },
    "WW"  :{
        "A": 159118,
        "B": 11974,
        "C": 436,
        "D": 1862
    },
    "stau_left" : {
        "A": 30638,
        "B": 3422,
        "C": 200,
        "D": 356
    },
    "data_obs" : {
        "A": 256433,
        "B": 1061711,
        "C": 489148,
        "D": 40513
    }
}